module gitlab.com/hwsc/playground/envoy

go 1.14

require (
	github.com/elastic/go-elasticsearch/v7 v7.6.0
	github.com/golang/protobuf v1.4.0
	golang.org/x/net v0.0.0-20200501053045-e0ff5e5a1de5
	golang.org/x/sys v0.0.0-20200501145240-bc7a7d42d5c3 // indirect
	golang.org/x/text v0.3.2 // indirect
	google.golang.org/genproto v0.0.0-20200430143042-b979b6f78d84 // indirect
	google.golang.org/grpc v1.29.1
)
